%YAML 1.1
%TAG !u! tag:unity3d.com,2011:
--- !u!74 &7400000
AnimationClip:
  m_ObjectHideFlags: 0
  m_PrefabParentObject: {fileID: 0}
  m_PrefabInternal: {fileID: 0}
  m_Name: Wizard_Death
  serializedVersion: 6
  m_Legacy: 0
  m_Compressed: 0
  m_UseHighQualityCurve: 1
  m_RotationCurves: []
  m_CompressedRotationCurves: []
  m_EulerCurves: []
  m_PositionCurves: []
  m_ScaleCurves: []
  m_FloatCurves:
  - curve:
      serializedVersion: 2
      m_Curve:
      - serializedVersion: 2
        time: 0
        value: 1
        inSlope: Infinity
        outSlope: Infinity
        tangentMode: 103
      m_PreInfinity: 2
      m_PostInfinity: 2
      m_RotationOrder: 4
    attribute: m_Enabled
    path: Wizard
    classID: 212
    script: {fileID: 0}
  m_PPtrCurves:
  - curve:
    - time: 0
      value: {fileID: 21300000, guid: 1c3f397ea36d44efab5edb1c0300cad0, type: 3}
    - time: 0.1
      value: {fileID: 21300002, guid: 1c3f397ea36d44efab5edb1c0300cad0, type: 3}
    - time: 0.2
      value: {fileID: 21300004, guid: 1c3f397ea36d44efab5edb1c0300cad0, type: 3}
    - time: 0.28333333
      value: {fileID: 21300006, guid: 1c3f397ea36d44efab5edb1c0300cad0, type: 3}
    - time: 0.38333333
      value: {fileID: 21300008, guid: 1c3f397ea36d44efab5edb1c0300cad0, type: 3}
    - time: 0.48333332
      value: {fileID: 21300010, guid: 1c3f397ea36d44efab5edb1c0300cad0, type: 3}
    - time: 0.5833333
      value: {fileID: 21300012, guid: 1c3f397ea36d44efab5edb1c0300cad0, type: 3}
    - time: 0.6666667
      value: {fileID: 21300014, guid: 1c3f397ea36d44efab5edb1c0300cad0, type: 3}
    - time: 0.76666665
      value: {fileID: 21300016, guid: 1c3f397ea36d44efab5edb1c0300cad0, type: 3}
    - time: 0.8666667
      value: {fileID: 21300018, guid: 1c3f397ea36d44efab5edb1c0300cad0, type: 3}
    attribute: m_Sprite
    path: Wizard
    classID: 212
    script: {fileID: 0}
  m_SampleRate: 60
  m_WrapMode: 0
  m_Bounds:
    m_Center: {x: 0, y: 0, z: 0}
    m_Extent: {x: 0, y: 0, z: 0}
  m_ClipBindingConstant:
    genericBindings:
    - serializedVersion: 2
      path: 774558474
      attribute: 3305885265
      script: {fileID: 0}
      typeID: 212
      customType: 0
      isPPtrCurve: 0
    - serializedVersion: 2
      path: 774558474
      attribute: 0
      script: {fileID: 0}
      typeID: 212
      customType: 23
      isPPtrCurve: 1
    pptrCurveMapping:
    - {fileID: 21300000, guid: 1c3f397ea36d44efab5edb1c0300cad0, type: 3}
    - {fileID: 21300002, guid: 1c3f397ea36d44efab5edb1c0300cad0, type: 3}
    - {fileID: 21300004, guid: 1c3f397ea36d44efab5edb1c0300cad0, type: 3}
    - {fileID: 21300006, guid: 1c3f397ea36d44efab5edb1c0300cad0, type: 3}
    - {fileID: 21300008, guid: 1c3f397ea36d44efab5edb1c0300cad0, type: 3}
    - {fileID: 21300010, guid: 1c3f397ea36d44efab5edb1c0300cad0, type: 3}
    - {fileID: 21300012, guid: 1c3f397ea36d44efab5edb1c0300cad0, type: 3}
    - {fileID: 21300014, guid: 1c3f397ea36d44efab5edb1c0300cad0, type: 3}
    - {fileID: 21300016, guid: 1c3f397ea36d44efab5edb1c0300cad0, type: 3}
    - {fileID: 21300018, guid: 1c3f397ea36d44efab5edb1c0300cad0, type: 3}
  m_AnimationClipSettings:
    serializedVersion: 2
    m_AdditiveReferencePoseClip: {fileID: 0}
    m_AdditiveReferencePoseTime: 0
    m_StartTime: 0
    m_StopTime: 0.8833333
    m_OrientationOffsetY: 0
    m_Level: 0
    m_CycleOffset: 0
    m_HasAdditiveReferencePose: 0
    m_LoopTime: 0
    m_LoopBlend: 0
    m_LoopBlendOrientation: 0
    m_LoopBlendPositionY: 0
    m_LoopBlendPositionXZ: 0
    m_KeepOriginalOrientation: 0
    m_KeepOriginalPositionY: 1
    m_KeepOriginalPositionXZ: 0
    m_HeightFromFeet: 0
    m_Mirror: 0
  m_EditorCurves:
  - curve:
      serializedVersion: 2
      m_Curve:
      - serializedVersion: 2
        time: 0
        value: 1
        inSlope: Infinity
        outSlope: Infinity
        tangentMode: 103
      m_PreInfinity: 2
      m_PostInfinity: 2
      m_RotationOrder: 4
    attribute: m_Enabled
    path: Wizard
    classID: 212
    script: {fileID: 0}
  m_EulerEditorCurves: []
  m_HasGenericRootTransform: 0
  m_HasMotionFloatCurves: 0
  m_GenerateMotionCurves: 0
  m_Events: []
